tb_matrix.vcd
$date
	Mon Dec 01 20:18:32 2025
$end
$version
	Icarus Verilog
$end
$timescale
	1ps
$end
$scope module tb_matrix_system $end
$var wire 2 ! alu_wr_slot [1:0] $end
$var wire 1 " mem_u_we $end
$var wire 16 # mem_u_wdata [15:0] $end
$var wire 2 $ mem_u_slot [1:0] $end
$var wire 3 % mem_u_row [2:0] $end
$var wire 16 & mem_u_rdata [15:0] $end
$var wire 1 ' mem_u_dim_we $end
$var wire 3 ( mem_u_dim_n [2:0] $end
$var wire 3 ) mem_u_dim_m [2:0] $end
$var wire 3 * mem_u_col [2:0] $end
$var wire 16 + mem_alu_rdata [15:0] $end
$var wire 3 , mem_alu_cur_n [2:0] $end
$var wire 3 - mem_alu_cur_m [2:0] $end
$var wire 1 . gen_out_we $end
$var wire 2 / gen_out_slot [1:0] $end
$var wire 3 0 gen_out_row [2:0] $end
$var wire 1 1 gen_out_dim_we $end
$var wire 3 2 gen_out_dim_n [2:0] $end
$var wire 3 3 gen_out_dim_m [2:0] $end
$var wire 16 4 gen_out_data [15:0] $end
$var wire 3 5 gen_out_col [2:0] $end
$var wire 1 6 gen_done $end
$var wire 1 7 conv_res_valid $end
$var wire 16 8 conv_res_data [15:0] $end
$var wire 2 9 conv_rd_slot [1:0] $end
$var wire 3 : conv_rd_row [2:0] $end
$var wire 3 ; conv_rd_col [2:0] $end
$var wire 1 < conv_done $end
$var wire 1 = alu_wr_we $end
$var wire 3 > alu_wr_row [2:0] $end
$var wire 16 ? alu_wr_data [15:0] $end
$var wire 3 @ alu_wr_col [2:0] $end
$var wire 3 A alu_res_n [2:0] $end
$var wire 3 B alu_res_m [2:0] $end
$var wire 2 C alu_rd_slot [1:0] $end
$var wire 3 D alu_rd_row [2:0] $end
$var wire 3 E alu_rd_col [2:0] $end
$var wire 1 F alu_error $end
$var wire 1 G alu_done $end
$var wire 1 H alu_dim_we $end
$var parameter 32 I MODE_CONV $end
$var parameter 32 J MODE_GEN $end
$var parameter 32 K MODE_TB $end
$var reg 3 L alu_opcode [2:0] $end
$var reg 16 M alu_scalar [15:0] $end
$var reg 1 N alu_start $end
$var reg 1 O clk $end
$var reg 1 P conv_start $end
$var reg 1 Q gen_start $end
$var reg 3 R gen_target_m [2:0] $end
$var reg 3 S gen_target_n [2:0] $end
$var reg 2 T gen_target_slot [1:0] $end
$var reg 1 U rst_n $end
$var reg 3 V tb_col [2:0] $end
$var reg 16 W tb_data [15:0] $end
$var reg 3 X tb_dim_m [2:0] $end
$var reg 3 Y tb_dim_n [2:0] $end
$var reg 1 Z tb_dim_we $end
$var reg 3 [ tb_row [2:0] $end
$var reg 2 \ tb_slot [1:0] $end
$var reg 1 ] tb_we $end
$var integer 32 ^ conv_col_cnt [31:0] $end
$var integer 32 _ mode [31:0] $end
$scope module u_alu $end
$var wire 1 O clk $end
$var wire 2 ` mem_wr_slot [1:0] $end
$var wire 3 a opcode [2:0] $end
$var wire 1 U rst_n $end
$var wire 16 b scalar_val [15:0] $end
$var wire 1 N start $end
$var wire 16 c mem_rd_data [15:0] $end
$var wire 3 d mem_current_n [2:0] $end
$var wire 3 e mem_current_m [2:0] $end
$var parameter 3 f OP_ADD $end
$var parameter 3 g OP_MUL $end
$var parameter 3 h OP_SCA $end
$var parameter 3 i OP_SUB $end
$var parameter 3 j OP_TRA $end
$var parameter 2 k SLOT_A $end
$var parameter 2 l SLOT_B $end
$var parameter 2 m SLOT_C $end
$var parameter 32 n S_CHECK $end
$var parameter 32 o S_DONE $end
$var parameter 32 p S_ERROR $end
$var parameter 32 q S_GET_DIM_A $end
$var parameter 32 r S_GET_DIM_B $end
$var parameter 32 s S_IDLE $end
$var parameter 32 t S_INIT_CALC $end
$var parameter 32 u S_MAT_MUL_ACC $end
$var parameter 32 v S_READ_OP1 $end
$var parameter 32 w S_READ_OP2 $end
$var parameter 32 x S_WRITE $end
$var reg 32 y accumulator [31:0] $end
$var reg 3 z dim_ma [2:0] $end
$var reg 3 { dim_mb [2:0] $end
$var reg 3 | dim_na [2:0] $end
$var reg 3 } dim_nb [2:0] $end
$var reg 1 G done $end
$var reg 1 F error $end
$var reg 3 ~ i [2:0] $end
$var reg 3 !" j [2:0] $end
$var reg 3 "" k [2:0] $end
$var reg 1 H mem_dim_we $end
$var reg 3 #" mem_rd_col [2:0] $end
$var reg 3 $" mem_rd_row [2:0] $end
$var reg 2 %" mem_rd_slot [1:0] $end
$var reg 3 &" mem_res_m [2:0] $end
$var reg 3 '" mem_res_n [2:0] $end
$var reg 3 (" mem_wr_col [2:0] $end
$var reg 16 )" mem_wr_data [15:0] $end
$var reg 3 *" mem_wr_row [2:0] $end
$var reg 1 = mem_wr_we $end
$var reg 16 +" reg_op_a [15:0] $end
$var reg 16 ," reg_op_b [15:0] $end
$var reg 4 -" state [3:0] $end
$upscope $end
$scope module u_conv $end
$var wire 1 O clk $end
$var wire 1 U rst_n $end
$var wire 1 P start_conv $end
$var wire 4 ." rom_data [3:0] $end
$var wire 16 /" mem_rd_data [15:0] $end
$var parameter 32 0" S_CALC_DONE $end
$var parameter 32 1" S_CALC_INIT $end
$var parameter 32 2" S_CALC_MAC $end
$var parameter 32 3" S_CALC_PRE $end
$var parameter 32 4" S_DONE $end
$var parameter 32 5" S_IDLE $end
$var parameter 32 6" S_LOAD_KERNEL $end
$var reg 32 7" accumulator [31:0] $end
$var reg 1 < conv_done $end
$var reg 16 8" conv_res_data [15:0] $end
$var reg 1 7 conv_res_valid $end
$var reg 4 9" kc [3:0] $end
$var reg 4 :" kr [3:0] $end
$var reg 4 ;" mac_cnt [3:0] $end
$var reg 3 <" mem_rd_col [2:0] $end
$var reg 3 =" mem_rd_row [2:0] $end
$var reg 2 >" mem_rd_slot [1:0] $end
$var reg 4 ?" next_kc [3:0] $end
$var reg 4 @" next_kr [3:0] $end
$var reg 4 A" out_c [3:0] $end
$var reg 4 B" out_r [3:0] $end
$var reg 4 C" rom_x [3:0] $end
$var reg 4 D" rom_y [3:0] $end
$var reg 4 E" state [3:0] $end
$scope module u_rom $end
$var wire 1 O clk $end
$var wire 4 F" x [3:0] $end
$var wire 4 G" y [3:0] $end
$var wire 7 H" addr [6:0] $end
$var reg 4 I" data_out [3:0] $end
$upscope $end
$upscope $end
$scope module u_gen $end
$var wire 1 O clk $end
$var wire 1 J" feedback $end
$var wire 1 U rst_n $end
$var wire 1 Q start $end
$var wire 3 K" target_m [2:0] $end
$var wire 3 L" target_n [2:0] $end
$var wire 2 M" target_slot [1:0] $end
$var parameter 32 N" S_DONE $end
$var parameter 32 O" S_GEN_LOOP $end
$var parameter 32 P" S_IDLE $end
$var parameter 32 Q" S_WRITE_DIM $end
$var reg 1 6 done $end
$var reg 3 R" gen_col [2:0] $end
$var reg 16 S" gen_data [15:0] $end
$var reg 3 T" gen_dim_m [2:0] $end
$var reg 3 U" gen_dim_n [2:0] $end
$var reg 1 1 gen_dim_we $end
$var reg 3 V" gen_row [2:0] $end
$var reg 2 W" gen_slot_idx [1:0] $end
$var reg 1 . gen_we $end
$var reg 3 X" i [2:0] $end
$var reg 3 Y" j [2:0] $end
$var reg 3 Z" latched_m [2:0] $end
$var reg 3 [" latched_n [2:0] $end
$var reg 2 \" latched_slot [1:0] $end
$var reg 16 ]" lfsr_reg [15:0] $end
$var reg 3 ^" state [2:0] $end
$upscope $end
$scope module u_mem $end
$var wire 3 _" alu_current_m [2:0] $end
$var wire 3 `" alu_current_n [2:0] $end
$var wire 1 H alu_dim_we $end
$var wire 3 a" alu_rd_col [2:0] $end
$var wire 16 b" alu_rd_data [15:0] $end
$var wire 3 c" alu_rd_row [2:0] $end
$var wire 2 d" alu_rd_slot [1:0] $end
$var wire 3 e" alu_res_m [2:0] $end
$var wire 3 f" alu_res_n [2:0] $end
$var wire 3 g" alu_wr_col [2:0] $end
$var wire 16 h" alu_wr_data [15:0] $end
$var wire 3 i" alu_wr_row [2:0] $end
$var wire 2 j" alu_wr_slot [1:0] $end
$var wire 1 = alu_wr_we $end
$var wire 1 O clk $end
$var wire 1 U rst_n $end
$var wire 3 k" user_col [2:0] $end
$var wire 16 l" user_data [15:0] $end
$var wire 3 m" user_dim_m [2:0] $end
$var wire 3 n" user_dim_n [2:0] $end
$var wire 1 ' user_dim_we $end
$var wire 16 o" user_rd_data [15:0] $end
$var wire 3 p" user_row [2:0] $end
$var wire 2 q" user_slot_idx [1:0] $end
$var wire 1 " user_we $end
$var wire 6 r" w_row_ext [5:0] $end
$var wire 6 s" u_row_ext [5:0] $end
$var wire 6 t" r_row_ext [5:0] $end
$var wire 7 u" addr_user [6:0] $end
$var wire 7 v" addr_alu_wr [6:0] $end
$var wire 7 w" addr_alu_rd [6:0] $end
$var parameter 32 x" MEM_DEPTH $end
$var integer 32 y" i [31:0] $end
$upscope $end
$scope task generate_matrix $end
$var reg 3 z" m [2:0] $end
$var reg 3 {" n [2:0] $end
$var reg 2 |" slot [1:0] $end
$var integer 32 }" timeout [31:0] $end
$upscope $end
$scope task print_matrix $end
$var reg 3 ~" dim_m [2:0] $end
$var reg 3 !# dim_n [2:0] $end
$var reg 2 "# slot [1:0] $end
$var integer 32 ## c [31:0] $end
$var integer 32 $# r [31:0] $end
$upscope $end
$scope task run_alu $end
$var reg 2 %# expected_slot_c [1:0] $end
$var reg 3 &# op [2:0] $end
$var reg 16 '# sc [15:0] $end
$upscope $end
$scope task run_convolution $end
$var integer 32 (# timeout [31:0] $end
$upscope $end
$scope task sys_reset $end
$upscope $end
$scope task write_cell $end
$var reg 3 )# c [2:0] $end
$var reg 16 *# d [15:0] $end
$var reg 3 +# r [2:0] $end
$var reg 2 ,# s [1:0] $end
$upscope $end
$scope task write_kernel $end
$upscope $end
$scope task write_matrix_linear $end
$var reg 3 -# m [2:0] $end
$var reg 3 .# n [2:0] $end
$var reg 2 /# slot [1:0] $end
$var reg 16 0# start_val [15:0] $end
$var reg 16 1# val [15:0] $end
$var integer 32 2# c [31:0] $end
$var integer 32 3# r [31:0] $end
$upscope $end
$upscope $end
$enddefinitions $end
$comment Show the parameter values. $end
$dumpall
b1100000 x"
b1 Q"
b0 P"
b10 O"
b11 N"
b1 6"
b0 5"
b110 4"
b11 3"
b100 2"
b10 1"
b101 0"
b1000 x
b110 w
b101 v
b111 u
b100 t
b0 s
b10 r
b1 q
b1010 p
b1001 o
b11 n
b10 m
b1 l
b0 k
b100 j
b1 i
b11 h
b10 g
b0 f
b0 K
b1 J
b10 I
$end
#0
$dumpvars
bx 3#
bx 2#
bx 1#
bx 0#
bx /#
bx .#
bx -#
bx ,#
bx +#
bx *#
bx )#
bx (#
bx '#
bx &#
bx %#
bx $#
bx ##
bx "#
bx !#
bx ~"
bx }"
bx |"
bx {"
bx z"
b11 y"
b0 w"
bx v"
bx u"
b0 t"
b0xxx s"
b0xxx r"
bx q"
bx p"
bx o"
bx n"
bx m"
bx l"
bx k"
b10 j"
bx i"
bx h"
bx g"
b0 f"
b0 e"
b0 d"
b0 c"
bx b"
b0 a"
b0 `"
b0 _"
b0 ^"
b1010110011100001 ]"
b0 \"
b0 ["
b0 Z"
b0 Y"
b0 X"
b0 W"
b0 V"
b0 U"
b0 T"
b0 S"
b0 R"
bx M"
bx L"
bx K"
1J"
bx I"
b0 H"
b0 G"
b0 F"
b0 E"
b0 D"
b0 C"
b0 B"
b0 A"
bx @"
bx ?"
b0 >"
b0 ="
b0 <"
b0 ;"
b0 :"
b0 9"
b0 8"
b0 7"
bx /"
bx ."
b0 -"
b0 ,"
b0 +"
bx *"
bx )"
bx ("
b0 '"
b0 &"
b0 %"
b0 $"
b0 #"
b0 ""
b0 !"
b0 ~
b0 }
b0 |
b0 {
b0 z
b0 y
b0 e
b0 d
bx c
bx b
bx a
b10 `
b0 _
bx ^
0]
bx \
bx [
0Z
bx Y
bx X
bx W
bx V
0U
bx T
bx S
bx R
0Q
0P
0O
0N
bx M
bx L
0H
0G
0F
b0 E
b0 D
b0 C
b0 B
b0 A
bx @
bx ?
bx >
0=
0<
b0 ;
b0 :
b0 9
b0 8
07
06
b0 5
b0 4
b0 3
b0 2
01
b0 0
b0 /
0.
b0 -
b0 ,
bx +
bx *
bx )
bx (
0'
bx &
bx %
bx $
bx #
0"
b10 !
$end
#5000
b11 ."
b11 I"
b11 y"
1O
#10000
0O
#15000
b11 y"
1O
#20000
0O
1U
#25000
1O
#30000
0O
#35000
1O
#40000
b0 u"
b0 $
b0 q"
b0 s"
b0 %
b0 p"
b0 *
b0 k"
b0 #
b0 l"
b0 )
b0 m"
b0 (
b0 n"
0O
b11 S
b11 L"
b11 R
b11 K"
b0 T
b0 M"
b1 _
b11 {"
b11 z"
b0 |"
#45000
1Q
1O
#50000
0O
#55000
b1 ^"
b11 ["
b11 Z"
0Q
b0 }"
1O
#60000
0O
#65000
1'
b11 (
b11 n"
b11 )
b11 m"
b10 ^"
11
b11 2
b11 U"
b11 3
b11 T"
b1 }"
1O
#70000
0O
#75000
1J"
1"
b1 #
b1 l"
0'
b11 ,
b11 d
b11 `"
b11 -
b11 e
b11 _"
b1 Y"
1.
b1 4
b1 S"
b101100111000011 ]"
01
b10 }"
1O
#80000
0O
#85000
b11 #
b11 l"
b1 u"
b1 *
b1 k"
b10 Y"
b11 4
b11 S"
b1 5
b1 R"
b1011001110000111 ]"
1.
b1 +
b1 c
b1 b"
bx &
bx /"
bx o"
b11 }"
1O
#90000
0O
#95000
0J"
b111 #
b111 l"
b10 u"
b10 *
b10 k"
bx &
bx /"
bx o"
b1 X"
b0 Y"
b111 4
b111 S"
b10 5
b10 R"
b110011100001111 ]"
1.
b100 }"
1O
#100000
0O
#105000
b1111 #
b1111 l"
b0 *
b0 k"
b101 u"
b1 s"
b1 %
b1 p"
b1 Y"
b1111 4
b1111 S"
b0 5
b0 R"
b1 0
b1 V"
b1100111000011110 ]"
1.
bx &
bx /"
bx o"
b101 }"
1O
#110000
0O
#115000
1J"
b1110 #
b1110 l"
b110 u"
b1 *
b1 k"
bx &
bx /"
bx o"
b10 Y"
b1110 4
b1110 S"
b1 5
b1 R"
b1001110000111100 ]"
1.
b110 }"
1O
#120000
0O
#125000
0J"
b1100 #
b1100 l"
b111 u"
b10 *
b10 k"
b10 X"
b0 Y"
b1100 4
b1100 S"
b10 5
b10 R"
b11100001111001 ]"
1.
bx &
bx /"
bx o"
b111 }"
1O
#130000
0O
#135000
b1001 #
b1001 l"
b0 *
b0 k"
b1010 u"
b10 s"
b10 %
b10 p"
bx &
bx /"
bx o"
b1 Y"
b1001 4
b1001 S"
b0 5
b0 R"
b10 0
b10 V"
b111000011110010 ]"
1.
b1000 }"
1O
#140000
0O
#145000
0J"
b10 #
b10 l"
b1011 u"
b1 *
b1 k"
b10 Y"
b10 4
b10 S"
b1 5
b1 R"
b1110000111100100 ]"
1.
bx &
bx /"
bx o"
b1001 }"
1O
#150000
0O
#155000
1J"
b100 #
b100 l"
b1100 u"
b10 *
b10 k"
bx &
bx /"
bx o"
b11 ^"
b0 Y"
b100 4
b100 S"
b10 5
b10 R"
b1100001111001000 ]"
1.
b1010 }"
1O
#160000
0O
#165000
0"
b0 ^"
16
0.
b100 &
b100 /"
b100 o"
b1011 }"
1O
#170000
0O
#175000
06
b1100 }"
1O
#180000
0O
#185000
1Q
1O
b1 T
b1 M"
b1 |"
b1 _
#190000
0O
#195000
b1 ^"
b1 \"
0Q
b0 }"
1O
#200000
0O
#205000
1'
bx &
bx /"
bx o"
b101100 u"
b1 $
b1 q"
b10 ^"
b0 X"
11
b1 /
b1 W"
b1 }"
1O
#210000
0O
#215000
0J"
1"
b1000 #
b1000 l"
b0 *
b0 k"
b100000 u"
b0 s"
b0 %
b0 p"
0'
b1 Y"
1.
b1000 4
b1000 S"
b0 5
b0 R"
b0 0
b0 V"
b1000011110010001 ]"
01
b10 }"
1O
#220000
0O
#225000
1J"
b1 #
b1 l"
b100001 u"
b1 *
b1 k"
b10 Y"
b1 4
b1 S"
b1 5
b1 R"
b111100100010 ]"
1.
bx &
bx /"
bx o"
b11 }"
1O
#230000
0O
#235000
0J"
b10 #
b10 l"
b100010 u"
b10 *
b10 k"
bx &
bx /"
bx o"
b1 X"
b0 Y"
b10 4
b10 S"
b10 5
b10 R"
b1111001000101 ]"
1.
b100 }"
1O
#240000
0O
#245000
1J"
b101 #
b101 l"
b0 *
b0 k"
b100101 u"
b1 s"
b1 %
b1 p"
b1 Y"
b101 4
b101 S"
b0 5
b0 R"
b1 0
b1 V"
b11110010001010 ]"
1.
bx &
bx /"
bx o"
b101 }"
1O
#250000
0O
#255000
0J"
b1010 #
b1010 l"
b100110 u"
b1 *
b1 k"
bx &
bx /"
bx o"
b10 Y"
b1010 4
b1010 S"
b1 5
b1 R"
b111100100010101 ]"
1.
b110 }"
1O
#260000
0O
#265000
1J"
b101 #
b101 l"
b100111 u"
b10 *
b10 k"
b10 X"
b0 Y"
b101 4
b101 S"
b10 5
b10 R"
b1111001000101010 ]"
1.
bx &
bx /"
bx o"
b111 }"
1O
#270000
0O
#275000
1J"
b1010 #
b1010 l"
b0 *
b0 k"
b101010 u"
b10 s"
b10 %
b10 p"
bx &
bx /"
bx o"
b1 Y"
b1010 4
b1010 S"
b0 5
b0 R"
b10 0
b10 V"
b1110010001010101 ]"
1.
b1000 }"
1O
#280000
0O
#285000
1J"
b101 #
b101 l"
b101011 u"
b1 *
b1 k"
b10 Y"
b101 4
b101 S"
b1 5
b1 R"
b1100100010101011 ]"
1.
bx &
bx /"
bx o"
b1001 }"
1O
#290000
0O
#295000
0J"
b1011 #
b1011 l"
b101100 u"
b10 *
b10 k"
bx &
bx /"
bx o"
b11 ^"
b0 Y"
b1011 4
b1011 S"
b10 5
b10 R"
b1001000101010111 ]"
1.
b1010 }"
1O
#300000
0O
#305000
0"
b0 ^"
16
0.
b1011 &
b1011 /"
b1011 o"
b1011 }"
1O
#310000
0O
#315000
06
b1100 }"
1O
#320000
0O
#325000
b0 $
b0 q"
b0 s"
b0 %
b0 p"
b1 &
b1 /"
b1 o"
b0 u"
b0 *
b0 k"
bx #
bx l"
bx )
bx m"
bx (
bx n"
1O
b0 V
b0 [
b0 ##
b0 $#
b0 \
b11 !#
b11 ~"
b0 "#
b0 _
#326000
b11 &
b11 /"
b11 o"
b1 u"
b1 *
b1 k"
b1 V
b1 ##
#327000
b111 &
b111 /"
b111 o"
b10 u"
b10 *
b10 k"
b10 V
b10 ##
#328000
b0 *
b0 k"
b1111 &
b1111 /"
b1111 o"
b101 u"
b1 s"
b1 %
b1 p"
b0 V
b1 [
b1 $#
b0 ##
#329000
b1110 &
b1110 /"
b1110 o"
b110 u"
b1 *
b1 k"
b1 V
b1 ##
#330000
b1100 &
b1100 /"
b1100 o"
b111 u"
b10 *
b10 k"
b10 V
b10 ##
0O
#331000
b0 *
b0 k"
b1001 &
b1001 /"
b1001 o"
b1010 u"
b10 s"
b10 %
b10 p"
b0 V
b10 [
b10 $#
b0 ##
#332000
b10 &
b10 /"
b10 o"
b1011 u"
b1 *
b1 k"
b1 V
b1 ##
#333000
b100 &
b100 /"
b100 o"
b1100 u"
b10 *
b10 k"
b10 V
b10 ##
#334000
b0 *
b0 k"
b0 s"
b0 %
b0 p"
b1000 &
b1000 /"
b1000 o"
b100000 u"
b1 $
b1 q"
b0 V
b0 [
b1 \
b1 "#
b0 $#
b0 ##
#335000
b1 &
b1 /"
b1 o"
b100001 u"
b1 *
b1 k"
b1 V
b1 ##
1O
#336000
b10 &
b10 /"
b10 o"
b100010 u"
b10 *
b10 k"
b10 V
b10 ##
#337000
b0 *
b0 k"
b101 &
b101 /"
b101 o"
b100101 u"
b1 s"
b1 %
b1 p"
b0 V
b1 [
b1 $#
b0 ##
#338000
b1010 &
b1010 /"
b1010 o"
b100110 u"
b1 *
b1 k"
b1 V
b1 ##
#339000
b101 &
b101 /"
b101 o"
b100111 u"
b10 *
b10 k"
b10 V
b10 ##
#340000
b0 *
b0 k"
b1010 &
b1010 /"
b1010 o"
b101010 u"
b10 s"
b10 %
b10 p"
b0 V
b10 [
b10 $#
b0 ##
0O
#341000
b101 &
b101 /"
b101 o"
b101011 u"
b1 *
b1 k"
b1 V
b1 ##
#342000
b1011 &
b1011 /"
b1011 o"
b101100 u"
b10 *
b10 k"
b10 V
b10 ##
#343000
b0 M
b0 b
b0 L
b0 a
b10 %#
b0 '#
b0 &#
b11 $#
b11 ##
#345000
1N
1O
#350000
0O
#355000
b1 -"
0N
1O
#360000
0O
#365000
b1000 +
b1000 c
b1000 b"
b100000 w"
b1 C
b1 %"
b1 d"
b10 -"
b11 |
b11 z
1O
#370000
0O
#375000
b1 +
b1 c
b1 b"
b0 w"
b0 C
b0 %"
b0 d"
b11 -"
b11 }
b11 {
1O
#380000
0O
#385000
b100 -"
b11 A
b11 '"
b11 f"
b11 B
b11 &"
b11 e"
1O
#390000
0O
#395000
b101 -"
1H
1O
#400000
0O
#405000
b1000 +
b1000 c
b1000 b"
b100000 w"
b1 C
b1 %"
b1 d"
b110 -"
b1 +"
0H
1O
#410000
0O
#415000
b1 +
b1 c
b1 b"
b0 w"
b0 C
b0 %"
b0 d"
b1000 -"
b1000 ,"
1O
#420000
0O
#425000
b11 +
b11 c
b11 b"
b1 w"
b1 E
b1 #"
b1 a"
b1000000 v"
b101 -"
b1 !"
b1001 ?
b1001 )"
b1001 h"
b0 @
b0 ("
b0 g"
b0 r"
b0 >
b0 *"
b0 i"
1=
1O
#430000
0O
#435000
b1 C
b1 %"
b1 d"
b1 +
b1 c
b1 b"
b100001 w"
b1 E
b1 #"
b1 a"
b110 -"
b11 +"
0=
1O
#440000
0O
#445000
b0 E
b0 #"
b0 a"
b1 +
b1 c
b1 b"
b0 w"
b0 C
b0 %"
b0 d"
b1000 -"
b1 ,"
1O
#450000
0O
#455000
b111 +
b111 c
b111 b"
b10 w"
b10 E
b10 #"
b10 a"
b101 -"
b10 !"
b100 ?
b100 )"
b100 h"
b1000001 v"
b1 @
b1 ("
b1 g"
1=
1O
#460000
0O
#465000
b1 C
b1 %"
b1 d"
b10 +
b10 c
b10 b"
b100010 w"
b10 E
b10 #"
b10 a"
b110 -"
b111 +"
0=
1O
#470000
0O
#475000
b0 E
b0 #"
b0 a"
b1 +
b1 c
b1 b"
b0 w"
b0 C
b0 %"
b0 d"
b1000 -"
b10 ,"
1O
#480000
0O
#485000
b1111 +
b1111 c
b1111 b"
b101 w"
b1 t"
b1 D
b1 $"
b1 c"
b101 -"
b1 ~
b0 !"
b1001 ?
b1001 )"
b1001 h"
b1000010 v"
b10 @
b10 ("
b10 g"
1=
1O
#490000
0O
#495000
b1 C
b1 %"
b1 d"
b101 +
b101 c
b101 b"
b100101 w"
b1 t"
b1 D
b1 $"
b1 c"
b110 -"
b1111 +"
0=
1O
#500000
0O
#505000
b0 t"
b0 D
b0 $"
b0 c"
b1 +
b1 c
b1 b"
b0 w"
b0 C
b0 %"
b0 d"
b1000 -"
b101 ,"
1O
#510000
0O
#515000
b1 E
b1 #"
b1 a"
b1110 +
b1110 c
b1110 b"
b110 w"
b1 t"
b1 D
b1 $"
b1 c"
b101 -"
b1 !"
b10100 ?
b10100 )"
b10100 h"
b0 @
b0 ("
b0 g"
b1000101 v"
b1 r"
b1 >
b1 *"
b1 i"
1=
1O
#520000
0O
#525000
b1 C
b1 %"
b1 d"
b1 E
b1 #"
b1 a"
b1010 +
b1010 c
b1010 b"
b100110 w"
b1 t"
b1 D
b1 $"
b1 c"
b110 -"
b1110 +"
0=
1O
#530000
0O
#535000
b0 E
b0 #"
b0 a"
b0 t"
b0 D
b0 $"
b0 c"
b1 +
b1 c
b1 b"
b0 w"
b0 C
b0 %"
b0 d"
b1000 -"
b1010 ,"
1O
#540000
0O
#545000
b10 E
b10 #"
b10 a"
b1100 +
b1100 c
b1100 b"
b111 w"
b1 t"
b1 D
b1 $"
b1 c"
b101 -"
b10 !"
b11000 ?
b11000 )"
b11000 h"
b1000110 v"
b1 @
b1 ("
b1 g"
1=
1O
#550000
0O
#555000
b1 C
b1 %"
b1 d"
b10 E
b10 #"
b10 a"
b101 +
b101 c
b101 b"
b100111 w"
b1 t"
b1 D
b1 $"
b1 c"
b110 -"
b1100 +"
0=
1O
#560000
0O
#565000
b0 E
b0 #"
b0 a"
b0 t"
b0 D
b0 $"
b0 c"
b1 +
b1 c
b1 b"
b0 w"
b0 C
b0 %"
b0 d"
b1000 -"
b101 ,"
1O
#570000
0O
#575000
b1001 +
b1001 c
b1001 b"
b1010 w"
b10 t"
b10 D
b10 $"
b10 c"
b101 -"
b10 ~
b0 !"
b10001 ?
b10001 )"
b10001 h"
b1000111 v"
b10 @
b10 ("
b10 g"
1=
1O
#580000
0O
#585000
b1 C
b1 %"
b1 d"
b1010 +
b1010 c
b1010 b"
b101010 w"
b10 t"
b10 D
b10 $"
b10 c"
b110 -"
b1001 +"
0=
1O
#590000
0O
#595000
b0 t"
b0 D
b0 $"
b0 c"
b1 +
b1 c
b1 b"
b0 w"
b0 C
b0 %"
b0 d"
b1000 -"
b1010 ,"
1O
#600000
0O
#605000
b1 E
b1 #"
b1 a"
b10 +
b10 c
b10 b"
b1011 w"
b10 t"
b10 D
b10 $"
b10 c"
b101 -"
b1 !"
b10011 ?
b10011 )"
b10011 h"
b0 @
b0 ("
b0 g"
b1001010 v"
b10 r"
b10 >
b10 *"
b10 i"
1=
1O
#610000
0O
#615000
b1 C
b1 %"
b1 d"
b1 E
b1 #"
b1 a"
b101 +
b101 c
b101 b"
b101011 w"
b10 t"
b10 D
b10 $"
b10 c"
b110 -"
b10 +"
0=
1O
#620000
0O
#625000
b0 E
b0 #"
b0 a"
b0 t"
b0 D
b0 $"
b0 c"
b1 +
b1 c
b1 b"
b0 w"
b0 C
b0 %"
b0 d"
b1000 -"
b101 ,"
1O
#630000
0O
#635000
b10 E
b10 #"
b10 a"
b100 +
b100 c
b100 b"
b1100 w"
b10 t"
b10 D
b10 $"
b10 c"
b101 -"
b10 !"
b111 ?
b111 )"
b111 h"
b1001011 v"
b1 @
b1 ("
b1 g"
1=
1O
#640000
0O
#645000
b1 C
b1 %"
b1 d"
b10 E
b10 #"
b10 a"
b1011 +
b1011 c
b1011 b"
b101100 w"
b10 t"
b10 D
b10 $"
b10 c"
b110 -"
b100 +"
0=
1O
#650000
0O
#655000
b0 E
b0 #"
b0 a"
b0 t"
b0 D
b0 $"
b0 c"
b1 +
b1 c
b1 b"
b0 w"
b0 C
b0 %"
b0 d"
b1000 -"
b1011 ,"
1O
#660000
0O
#665000
b1001 -"
b0 !"
b1111 ?
b1111 )"
b1111 h"
b1001100 v"
b10 @
b10 ("
b10 g"
1=
1O
#670000
0O
#675000
b0 -"
1G
0=
1O
#680000
0O
#685000
0G
b0 *
b0 k"
b0 s"
b0 %
b0 p"
b1001 &
b1001 /"
b1001 o"
b1000000 u"
b10 $
b10 q"
1O
b0 V
b0 [
b0 ##
b0 $#
b10 \
b10 "#
#686000
b100 &
b100 /"
b100 o"
b1000001 u"
b1 *
b1 k"
b1 V
b1 ##
#687000
b1001 &
b1001 /"
b1001 o"
b1000010 u"
b10 *
b10 k"
b10 V
b10 ##
#688000
b0 *
b0 k"
b10100 &
b10100 /"
b10100 o"
b1000101 u"
b1 s"
b1 %
b1 p"
b0 V
b1 [
b1 $#
b0 ##
#689000
b11000 &
b11000 /"
b11000 o"
b1000110 u"
b1 *
b1 k"
b1 V
b1 ##
#690000
b10001 &
b10001 /"
b10001 o"
b1000111 u"
b10 *
b10 k"
b10 V
b10 ##
0O
#691000
b0 *
b0 k"
b10011 &
b10011 /"
b10011 o"
b1001010 u"
b10 s"
b10 %
b10 p"
b0 V
b10 [
b10 $#
b0 ##
#692000
b111 &
b111 /"
b111 o"
b1001011 u"
b1 *
b1 k"
b1 V
b1 ##
#693000
b1111 &
b1111 /"
b1111 o"
b1001100 u"
b10 *
b10 k"
b10 V
b10 ##
#694000
b1011 &
b1011 /"
b1011 o"
b101100 u"
b1 $
b1 q"
b1011 #
b1011 l"
b11 )
b11 m"
b11 (
b11 n"
b10 R
b10 K"
b0 T
b0 M"
b1 _
b10 z"
b0 |"
b11 $#
b11 ##
#695000
1Q
1O
#700000
0O
#705000
b1 ^"
b0 \"
b10 Z"
0Q
b0 }"
1O
#710000
0O
#715000
1'
b10 )
b10 m"
b100 &
b100 /"
b100 o"
b1100 u"
b0 $
b0 q"
b10 ^"
b0 X"
11
b10 3
b10 T"
b0 /
b0 W"
b1 }"
1O
#720000
0O
#725000
1J"
1"
b111 #
b111 l"
b0 *
b0 k"
b1 &
b1 /"
b1 o"
b0 u"
b0 s"
b0 %
b0 p"
0'
b1 Y"
1.
b111 4
b111 S"
b0 5
b0 R"
b0 0
b0 V"
b10001010101110 ]"
01
b10 -
b10 e
b10 _"
b10 }"
1O
#730000
0O
#735000
1J"
b1110 #
b1110 l"
b1 u"
b1 *
b1 k"
b111 +
b111 c
b111 b"
b11 &
b11 /"
b11 o"
b10 Y"
b1110 4
b1110 S"
b1 5
b1 R"
b100010101011101 ]"
1.
b11 }"
1O
#740000
0O
#745000
1J"
b1101 #
b1101 l"
b10 u"
b10 *
b10 k"
b1 X"
b0 Y"
b1101 4
b1101 S"
b10 5
b10 R"
b1000101010111011 ]"
1.
b111 &
b111 /"
b111 o"
b100 }"
1O
#750000
0O
#755000
0J"
b1011 #
b1011 l"
b0 *
b0 k"
b101 u"
b1 s"
b1 %
b1 p"
b1111 &
b1111 /"
b1111 o"
b1 Y"
b1011 4
b1011 S"
b0 5
b0 R"
b1 0
b1 V"
b1010101110111 ]"
1.
b101 }"
1O
#760000
0O
